<?xml version="1.0" encoding="UTF-8"?>
<svg width="78px" height="90px" viewBox="0 0 78 90" version="1.1" xmlns="http://www.w3.org/2000/svg" xmlns:xlink="http://www.w3.org/1999/xlink">
    <!-- Generator: Sketch 50.2 (55047) - http://www.bohemiancoding.com/sketch -->
    <title>Group</title>
    <desc>Created with Sketch.</desc>
    <defs></defs>
    <g id="Page-1" stroke="none" stroke-width="1" fill="none" fill-rule="evenodd">
        <g id="170-web-icons-webperts" transform="translate(-1011.000000, -417.000000)" fill="#FFFFFF" fill-rule="nonzero">
            <g id="Group" transform="translate(1011.000000, 417.000000)">
                <g id="146">
                    <path d="M77.898,45 C77.898,44.12 77.185,43.408 76.306,43.408 L25.793,43.408 L41.243,27.958 C41.864,27.338 41.864,26.329 41.243,25.707 C40.621,25.086 39.613,25.086 38.992,25.707 L22.872,41.827 C22.026,42.674 21.56,43.799 21.56,45 C21.56,46.2 22.025,47.326 22.872,48.171 L38.992,64.293 C39.613,64.914 40.621,64.914 41.243,64.293 C41.864,63.671 41.864,62.662 41.243,62.041 L25.794,46.592 L76.307,46.592 C77.186,46.592 77.898,45.878 77.898,45 Z" id="Shape"></path>
                    <path d="M49.925,0 L11.34,0 C5.144,0 0.102,5.042 0.102,11.238 L0.102,78.761 C0.102,84.958 5.144,90 11.34,90 L49.925,90 C56.121,90 61.163,84.958 61.163,78.762 L61.163,65.885 C61.163,65.005 60.451,64.293 59.571,64.293 C58.691,64.293 57.978,65.005 57.978,65.885 L57.978,78.762 C57.978,83.203 54.366,86.817 49.924,86.817 L11.34,86.817 C6.9,86.817 3.285,83.204 3.285,78.762 L3.285,11.238 C3.285,6.797 6.899,3.183 11.34,3.183 L49.925,3.183 C54.366,3.183 57.979,6.796 57.979,11.238 L57.979,24.115 C57.979,24.995 58.692,25.707 59.572,25.707 C60.452,25.707 61.164,24.995 61.164,24.115 L61.164,11.238 C61.163,5.042 56.121,0 49.925,0 Z" id="Shape"></path>
                </g>
            </g>
        </g>
    </g>
</svg>