<?xml version="1.0" encoding="utf-8"?>
<!-- Generator: Adobe Illustrator 21.0.0, SVG Export Plug-In . SVG Version: 6.00 Build 0)  -->
<svg version="1.1" id="Layer_1" xmlns="http://www.w3.org/2000/svg" xmlns:xlink="http://www.w3.org/1999/xlink" x="0px" y="0px"
	 viewBox="0 0 152 157.9" style="enable-background:new 0 0 152 157.9;" xml:space="preserve">
<style type="text/css">
	.st0{fill:#383838;}
	.st1{fill:#2779FE;}
</style>
<g>
	<path class="st0" d="M107.2,38.8c-6.7,0-12.8,0-18.9,0c-9.5-0.1-14.5-5-14.6-14.5c-0.1-5.9,0-11.9,0-18.4c-4.2,0-7.8,0-11.5,0
		c-15,0-30,0-45,0C9,6,6.2,8.8,6.2,17.1c0,41.3,0,82.7,0,124c0,7.9,3,10.8,11,10.8c15.5,0,31,0,46.5,0c1.3,0,2.8-0.3,4,0.2
		c1.1,0.5,2.7,1.9,2.6,2.8c-0.1,1-1.6,2.2-2.7,2.8c-0.8,0.4-2,0.1-3,0.1c-16,0-32,0-48,0C5.8,157.8,0,152.2,0,141.6
		C0,99.7,0,57.9,0,16.1C0,5.7,5.8,0.1,16.2,0c19.2,0,38.3-0.1,57.5,0.1c2.3,0,5.2,1.2,6.9,2.8c10.1,9.7,20,19.6,29.7,29.7
		c1.6,1.7,2.7,4.5,2.9,6.9c0.4,5,0.4,10,0,15c-0.1,1.6-2,3.1-3.1,4.7c-0.9-1.5-2.6-3-2.7-4.5C107,49.7,107.2,44.5,107.2,38.8z
		 M103,36c-8.8-8.9-17.6-17.7-26.3-26.5c0,5.6-0.3,11.7,0.1,17.8c0.3,4.8,4.4,8.5,9.4,8.7C92,36.2,97.8,36,103,36z"/>
	<path class="st1" d="M152,114.6c0,24.1-19.4,43.3-43.6,43.3c-24.1,0-43.5-19.6-43.4-43.6C65,90.3,84.5,71,108.7,71
		C132.8,71,152,90.4,152,114.6z M145.9,114.9c0.2-20.7-16.3-37.7-36.9-38C88.4,76.7,71.3,93.4,71.1,114c-0.2,20.7,16.4,37.7,37,38
		C128.6,152.3,145.7,135.6,145.9,114.9z"/>
</g>
<path class="st0" d="M110.3,60.4L110.3,60.4c-1.7,0-3.1-1.4-3.1-3.1V46.5c0-1.7,1.4-3.1,3.1-3.1h0c1.7,0,3.1,1.4,3.1,3.1v10.8
	C113.5,59,112,60.4,110.3,60.4z"/>
<path class="st0" d="M44.4,154.9L44.4,154.9c0-1.7,1.4-3,3-3h19.1c1.7,0,3,1.4,3,3l0,0c0,1.7-1.4,3-3,3H47.4
	C45.7,157.9,44.4,156.5,44.4,154.9z"/>
<path class="st1" d="M108.5,135.6L108.5,135.6c-1.7,0-3.1-1.4-3.1-3.1v-36c0-1.7,1.4-3.1,3.1-3.1h0c1.7,0,3.1,1.4,3.1,3.1v36
	C111.6,134.2,110.2,135.6,108.5,135.6z"/>
<path class="st1" d="M87.3,114.5L87.3,114.5c0-1.7,1.4-3.1,3.1-3.1h36c1.7,0,3.1,1.4,3.1,3.1v0c0,1.7-1.4,3.1-3.1,3.1h-36
	C88.7,117.6,87.3,116.2,87.3,114.5z"/>
<path class="st0" d="M15.3,41v-1.3c0-1.3,1-2.3,2.3-2.3h46.7c1.3,0,2.3,1,2.3,2.3V41c0,1.3-1,2.3-2.3,2.3H17.6
	C16.4,43.3,15.3,42.2,15.3,41z"/>
<path class="st0" d="M15.3,65.5v-1.3c0-1.3,1-2.3,2.3-2.3h46.7c1.3,0,2.3,1,2.3,2.3v1.3c0,1.3-1,2.3-2.3,2.3H17.6
	C16.4,67.8,15.3,66.7,15.3,65.5z"/>
<path class="st0" d="M15.3,88.7v-1.3c0-1.3,1-2.3,2.3-2.3h46.7c1.3,0,2.3,1,2.3,2.3v1.3c0,1.3-1,2.3-2.3,2.3H17.6
	C16.4,91,15.3,89.9,15.3,88.7z"/>
</svg>
