<?xml version="1.0" encoding="UTF-8"?>
<svg width="70px" height="108px" viewBox="0 0 70 108" version="1.1" xmlns="http://www.w3.org/2000/svg" xmlns:xlink="http://www.w3.org/1999/xlink">
    <!-- Generator: Sketch 45.2 (43514) - http://www.bohemiancoding.com/sketch -->
    <title>Group 3</title>
    <desc>Created with Sketch.</desc>
    <defs></defs>
    <g id="Page-1" stroke="none" stroke-width="1" fill="none" fill-rule="evenodd">
        <g id="infographic-elements" transform="translate(-469.000000, -3092.000000)" fill="#FFFFFF">
            <g id="INFOGRAPHIC_ELEMENTS">
                <g id="USERS" transform="translate(127.000000, 3024.000000)">
                    <g id="Group" transform="translate(0.000000, 68.000000)">
                        <g transform="translate(342.000000, 0.000000)" id="Group-3">
                            <g>
                                <g id="Group">
                                    <g id="Group-2">
                                        <path d="M34.209,18.994 L30.439,18.994 L29.855,18.994 L9.28,18.994 L8.693,18.994 L4.924,18.994 C2.267,18.994 0.109,21.15 0.109,23.807 L0.109,23.875 L0.109,31.766 L0.109,58.623 C0.109,60.555 1.823,62.125 3.937,62.125 L4.014,62.125 C6.127,62.125 7.841,60.555 7.841,58.623 L7.841,31.113 L7.841,31.113 C8.029,31.072 8.226,31.045 8.428,31.045 C8.519,31.045 8.603,31.059 8.693,31.066 L8.693,55.314 L8.693,60.057 L8.693,101.895 C8.693,104.545 10.84,106.697 13.49,106.697 L13.586,106.697 C16.238,106.697 18.386,104.547 18.386,101.895 L18.386,59.979 L18.386,59.979 C18.727,59.754 19.127,59.619 19.568,59.619 C20.007,59.619 20.41,59.758 20.752,59.983 C20.752,60.026 20.746,60.067 20.746,60.11 L20.746,101.895 C20.746,104.544 22.894,106.696 25.543,106.696 L25.642,106.696 C28.293,106.696 30.443,104.547 30.443,101.895 L30.443,60.11 C30.443,60.092 30.439,60.076 30.439,60.057 L30.443,60.057 L30.443,31.065 C30.533,31.057 30.617,31.044 30.711,31.044 C30.914,31.044 31.107,31.071 31.299,31.112 L31.299,31.112 L31.299,58.622 C31.299,60.554 33.012,62.124 35.126,62.124 L35.203,62.124 C37.316,62.124 39.027,60.554 39.027,58.622 L39.027,31.765 L39.027,23.874 L39.027,23.806 C39.023,21.15 36.87,18.994 34.209,18.994 Z" id="Shape"></path>
                                        <path d="M28.182,8.709 C28.182,13.469 24.325,17.322 19.568,17.322 C14.81,17.322 10.957,13.468 10.957,8.709 C10.957,3.955 14.811,0.096 19.568,0.096 C24.324,0.096 28.182,3.955 28.182,8.709 Z" id="Shape"></path>
                                    </g>
                                    <g id="Group-2-Copy" transform="translate(41.000000, 30.013610)">
                                        <path d="M24.9330507,13.8436776 L22.185306,13.8436776 L21.7596606,13.8436776 L6.76367947,13.8436776 L6.33584759,13.8436776 L3.58883165,13.8436776 C1.65229109,13.8436776 0.0794440799,15.4150669 0.0794440799,17.3516074 L0.0794440799,17.4011689 L0.0794440799,23.152483 L0.0794440799,42.727067 C0.0794440799,44.1351951 1.32868402,45.2794813 2.86946186,45.2794813 L2.92558291,45.2794813 C4.46563191,45.2794813 5.71487184,44.1351951 5.71487184,42.727067 L5.71487184,22.6765473 L5.71487184,22.6765473 C5.85189466,22.6466647 5.99547708,22.6269859 6.14270372,22.6269859 C6.2090286,22.6269859 6.27025156,22.6371897 6.33584759,22.6422916 L6.33584759,40.3153196 L6.33584759,43.7722304 L6.33584759,74.2656379 C6.33584759,76.1970765 7.90067731,77.7655504 9.83211595,77.7655504 L9.90208505,77.7655504 C11.8349814,77.7655504 13.4005399,76.1985342 13.4005399,74.2656379 L13.4005399,43.7153805 L13.4005399,43.7153805 C13.649076,43.5513904 13.9406139,43.4529964 14.2620345,43.4529964 C14.5819973,43.4529964 14.8757218,43.5543058 15.1249867,43.7182958 C15.1249867,43.7496362 15.1206136,43.7795188 15.1206136,43.8108591 L15.1206136,74.2656379 C15.1206136,76.1963477 16.6861722,77.7648216 18.616882,77.7648216 L18.6890376,77.7648216 C20.6212051,77.7648216 22.1882213,76.1985342 22.1882213,74.2656379 L22.1882213,43.8108591 C22.1882213,43.7977399 22.185306,43.7860784 22.185306,43.7722304 L22.1882213,43.7722304 L22.1882213,22.6415628 C22.2538174,22.635732 22.3150403,22.626257 22.3835517,22.626257 C22.5315072,22.626257 22.6721743,22.6459359 22.8121125,22.6758185 L22.8121125,22.6758185 L22.8121125,42.7263381 C22.8121125,44.1344662 24.0606236,45.2787525 25.6014014,45.2787525 L25.6575224,45.2787525 C27.1975714,45.2787525 28.4446248,44.1344662 28.4446248,42.7263381 L28.4446248,23.1517541 L28.4446248,17.40044 L28.4446248,17.3508786 C28.4417095,15.4150669 26.8725067,13.8436776 24.9330507,13.8436776 Z" id="Shape"></path>
                                        <path d="M20.5403033,6.3475091 C20.5403033,9.81681021 17.729149,12.6250491 14.2620345,12.6250491 C10.794191,12.6250491 7.98595215,9.81608136 7.98595215,6.3475091 C7.98595215,2.88258107 10.7949199,0.0699690979 14.2620345,0.0699690979 C17.7284202,0.0699690979 20.5403033,2.88258107 20.5403033,6.3475091 Z" id="Shape"></path>
                                    </g>
                                </g>
                            </g>
                        </g>
                    </g>
                </g>
            </g>
        </g>
    </g>
</svg>