PartitionKey,RowKey,Timestamp,Key,Key@type,Value,Value@type
sn,4,2018-03-08T06:57:08.649Z,SendEmailValidationMessageSubHeader,Edm.String,"???????,??????? ???? ???????? ?????? ?????? ?????",Edm.String
en,1,2018-03-08T06:53:45.684Z,SendEmailValidationMessageHeader,Edm.String,Welcome to Inexis Membership Application,Edm.String
en,3,2018-03-08T06:55:05.402Z,SendEmailValidationMessageSubHeader,Edm.String,"Hi Bro,Plase validate your Email Address",Edm.String
sn,2,2018-03-08T06:53:26.869Z,SendEmailValidationMessageHeader,Edm.String,??? inexis ???? ????? ???????? ??????????,Edm.String
sn,5,2018-03-08T06:53:26.869Z,ValidateEmailAddressEmailButtonMessage,Edm.String,?????? ?????? ?????,Edm.String
en,6,2018-03-08T06:53:26.869Z,ValidateEmailAddressEmailButtonMessage,Edm.String,Click here for validate,Edm.String
